sim_logs/tb_siso_vector_compare.vcd
$date
  Sun Mar 22 23:29:41 2026
$end
$version
  GHDL v0
$end
$timescale
  1 fs
$end
$scope module standard $end
$upscope $end
$scope module textio $end
$upscope $end
$scope module std_logic_1164 $end
$upscope $end
$scope module numeric_std $end
$upscope $end
$scope module turbo_pkg $end
$upscope $end
$scope module env $end
$upscope $end
$scope module tb_siso_vector_compare $end
$var reg 1 ! clk $end
$var reg 1 " rst $end
$var reg 1 # start $end
$var reg 1 $ in_valid $end
$var reg 1 % out_valid $end
$var reg 1 & done $end
$var reg 13 ' seg_len[12:0] $end
$var reg 13 ( in_pair_idx[12:0] $end
$var reg 13 ) out_pair_idx[12:0] $end
$var reg 5 * sys_e[4:0] $end
$var reg 5 + sys_o[4:0] $end
$var reg 5 , par_e[4:0] $end
$var reg 5 - par_o[4:0] $end
$var reg 6 . apr_e[5:0] $end
$var reg 6 / apr_o[5:0] $end
$var reg 6 0 ext_e[5:0] $end
$var reg 6 1 ext_o[5:0] $end
$var reg 7 2 post_e[6:0] $end
$var reg 7 3 post_o[6:0] $end
$scope module dut $end
$var reg 1 4 clk $end
$var reg 1 5 rst $end
$var reg 1 6 start $end
$var reg 1 7 seg_first $end
$var reg 1 8 seg_last $end
$var reg 13 9 seg_len[12:0] $end
$var reg 1 : in_valid $end
$var reg 13 ; in_pair_idx[12:0] $end
$var reg 5 < sys_even[4:0] $end
$var reg 5 = sys_odd[4:0] $end
$var reg 5 > par_even[4:0] $end
$var reg 5 ? par_odd[4:0] $end
$var reg 6 @ apri_even[5:0] $end
$var reg 6 A apri_odd[5:0] $end
$var reg 1 B out_valid $end
$var reg 13 C out_pair_idx[12:0] $end
$var reg 6 D ext_even[5:0] $end
$var reg 6 E ext_odd[5:0] $end
$var reg 7 F post_even[6:0] $end
$var reg 7 G post_odd[6:0] $end
$var reg 1 H done $end
$comment st is not handled $end
$var integer 32 I pair_cnt $end
$var integer 32 J seg_bits_i $end
$var integer 32 K win_cnt $end
$var integer 32 L load_idx $end
$var integer 32 M work_win_idx $end
$var integer 32 N work_local_idx $end
$comment alpha_work is not handled $end
$comment beta_work is not handled $end
$comment beta_seed_reg is not handled $end
$comment alpha_seed_mem is not handled $end
$comment sys_even_mem is not handled $end
$comment sys_odd_mem is not handled $end
$comment par_even_mem is not handled $end
$comment par_odd_mem is not handled $end
$comment apri_even_mem is not handled $end
$comment apri_odd_mem is not handled $end
$comment gamma_local_mem is not handled $end
$comment alpha_local_mem is not handled $end
$comment sys_even_local_mem is not handled $end
$comment sys_odd_local_mem is not handled $end
$comment par_even_local_mem is not handled $end
$comment par_odd_local_mem is not handled $end
$comment apri_even_local_mem is not handled $end
$comment apri_odd_local_mem is not handled $end
$var reg 1 O out_valid_q $end
$var reg 1 P done_q $end
$var reg 13 Q out_pair_idx_q[12:0] $end
$var reg 6 R ext_even_q[5:0] $end
$var reg 6 S ext_odd_q[5:0] $end
$var reg 7 T post_even_q[6:0] $end
$var reg 7 U post_odd_q[6:0] $end
$upscope $end
$upscope $end
$enddefinitions $end
#0
0!
1"
0#
0$
0%
0&
b0000000000000 '
b0000000000000 (
b0000000000000 )
b00000 *
b00000 +
b00000 ,
b00000 -
b000000 .
b000000 /
b000000 0
b000000 1
b0000000 2
b0000000 3
04
15
06
17
08
b0000000000000 9
0:
b0000000000000 ;
b00000 <
b00000 =
b00000 >
b00000 ?
b000000 @
b000000 A
0B
b0000000000000 C
b000000 D
b000000 E
b0000000 F
b0000000 G
0H
b0 I
b0 J
b0 K
b0 L
b0 M
b0 N
0O
0P
b0000000000000 Q
b000000 R
b000000 S
b0000000 T
b0000000 U
#5000000
1!
14
#10000000
0!
04
#15000000
1!
14
#20000000
0!
0"
b0000000101000 '
04
05
b0000000101000 9
#25000000
1!
1#
14
16
#30000000
0!
04
#35000000
1!
0#
1$
b01111 *
b10111 +
b00110 ,
b10000 -
14
06
1:
b01111 <
b10111 =
b00110 >
b10000 ?
b10100 I
b101000 J
b10 K
#40000000
0!
04
#45000000
1!
b0000000000001 (
b01100 *
b10011 +
b01000 ,
b01100 -
14
b0000000000001 ;
b01100 <
b10011 =
b01000 >
b01100 ?
b1 L
#50000000
0!
04
#55000000
1!
b0000000000010 (
b10110 *
b10111 +
b10000 ,
b01101 -
14
b0000000000010 ;
b10110 <
b10111 =
b10000 >
b01101 ?
b10 L
#60000000
0!
04
#65000000
1!
b0000000000011 (
b01101 *
b10000 +
b00111 ,
b11011 -
14
b0000000000011 ;
b01101 <
b10000 =
b00111 >
b11011 ?
b11 L
#70000000
0!
04
#75000000
1!
b0000000000100 (
b01010 *
b10101 +
b01111 ,
b01011 -
14
b0000000000100 ;
b01010 <
b10101 =
b01111 >
b01011 ?
b100 L
#80000000
0!
04
#85000000
1!
b0000000000101 (
b01111 *
b01111 +
b11100 -
14
b0000000000101 ;
b01111 <
b01111 =
b11100 ?
b101 L
#90000000
0!
04
#95000000
1!
b0000000000110 (
b10110 *
b00101 +
b10000 -
14
b0000000000110 ;
b10110 <
b00101 =
b10000 ?
b110 L
#100000000
0!
04
#105000000
1!
b0000000000111 (
b01010 *
b01101 +
b10110 ,
14
b0000000000111 ;
b01010 <
b01101 =
b10110 >
b111 L
#110000000
0!
04
#115000000
1!
b0000000001000 (
b01110 *
b10111 +
b01111 ,
b01111 -
14
b0000000001000 ;
b01110 <
b10111 =
b01111 >
b01111 ?
b1000 L
#120000000
0!
04
#125000000
1!
b0000000001001 (
b01111 +
b01101 ,
b10010 -
14
b0000000001001 ;
b01111 =
b01101 >
b10010 ?
b1001 L
#130000000
0!
04
#135000000
1!
b0000000001010 (
b10000 *
b00011 +
b01111 ,
b01101 -
14
b0000000001010 ;
b10000 <
b00011 =
b01111 >
b01101 ?
b1010 L
#140000000
0!
04
#145000000
1!
b0000000001011 (
b01000 *
b00010 +
b11001 ,
b10010 -
14
b0000000001011 ;
b01000 <
b00010 =
b11001 >
b10010 ?
b1011 L
#150000000
0!
04
#155000000
1!
b0000000001100 (
b11100 *
b01111 +
b10111 ,
b00110 -
14
b0000000001100 ;
b11100 <
b01111 =
b10111 >
b00110 ?
b1100 L
#160000000
0!
04
#165000000
1!
b0000000001101 (
b00010 *
b10010 +
b01100 ,
b01010 -
14
b0000000001101 ;
b00010 <
b10010 =
b01100 >
b01010 ?
b1101 L
#170000000
0!
04
#175000000
1!
b0000000001110 (
b10000 *
b11001 +
b01000 ,
b10010 -
14
b0000000001110 ;
b10000 <
b11001 =
b01000 >
b10010 ?
b1110 L
#180000000
0!
04
#185000000
1!
b0000000001111 (
b01100 *
b10001 +
b10100 ,
b10100 -
14
b0000000001111 ;
b01100 <
b10001 =
b10100 >
b10100 ?
b1111 L
#190000000
0!
04
#195000000
1!
b0000000010000 (
b10000 *
b10011 +
b01001 ,
b01001 -
14
b0000000010000 ;
b10000 <
b10011 =
b01001 >
b01001 ?
b10000 L
#200000000
0!
04
#205000000
1!
b0000000010001 (
b01100 *
b10001 +
b10010 ,
b10110 -
14
b0000000010001 ;
b01100 <
b10001 =
b10010 >
b10110 ?
b10001 L
#210000000
0!
04
#215000000
1!
b0000000010010 (
b10011 *
b01100 +
b01110 -
14
b0000000010010 ;
b10011 <
b01100 =
b01110 ?
b10010 L
#220000000
0!
04
#225000000
1!
b0000000010011 (
b00100 *
b00000 +
b01000 ,
b11011 -
14
b0000000010011 ;
b00100 <
b00000 =
b01000 >
b11011 ?
b10011 L
#230000000
0!
04
#235000000
1!
0$
14
0:
#240000000
0!
04
#245000000
1!
14
b1 N
#250000000
0!
04
#255000000
1!
14
b10 N
#260000000
0!
04
#265000000
1!
14
b11 N
#270000000
0!
04
#275000000
1!
14
b100 N
#280000000
0!
04
#285000000
1!
14
b101 N
#290000000
0!
04
#295000000
1!
14
b110 N
#300000000
0!
04
#305000000
1!
14
b111 N
#310000000
0!
04
#315000000
1!
14
b1000 N
#320000000
0!
04
#325000000
1!
14
b1001 N
#330000000
0!
04
#335000000
1!
14
b1010 N
#340000000
0!
04
#345000000
1!
14
b1011 N
#350000000
0!
04
#355000000
1!
14
b1100 N
#360000000
0!
04
#365000000
1!
14
b1101 N
#370000000
0!
04
#375000000
1!
14
b1110 N
#380000000
0!
04
#385000000
1!
14
b0 N
#390000000
0!
04
#395000000
1!
14
b1 N
#400000000
0!
04
#405000000
1!
14
b10 N
#410000000
0!
04
#415000000
1!
14
b11 N
#420000000
0!
04
#425000000
1!
14
b100 N
#430000000
0!
04
#435000000
1!
14
b101 N
#440000000
0!
04
#445000000
1!
14
b110 N
#450000000
0!
04
#455000000
1!
14
b111 N
#460000000
0!
04
#465000000
1!
14
b1000 N
#470000000
0!
04
#475000000
1!
14
b1001 N
#480000000
0!
04
#485000000
1!
14
b1010 N
#490000000
0!
04
#495000000
1!
14
b1011 N
#500000000
0!
04
#505000000
1!
14
b1100 N
#510000000
0!
04
#515000000
1!
14
b1101 N
#520000000
0!
04
#525000000
1!
14
b1110 N
#530000000
0!
04
#535000000
1!
14
b1 M
b0 N
#540000000
0!
04
#545000000
1!
14
b1 N
#550000000
0!
04
#555000000
1!
14
b10 N
#560000000
0!
04
#565000000
1!
14
b11 N
#570000000
0!
04
#575000000
1!
14
b100 N
#580000000
0!
04
#585000000
1!
14
b0 N
#590000000
0!
04
#595000000
1!
14
#600000000
0!
04
#605000000
1!
14
b1 N
#610000000
0!
04
#615000000
1!
14
b10 N
#620000000
0!
04
#625000000
1!
14
b11 N
#630000000
0!
04
#635000000
1!
14
b100 N
#640000000
0!
04
#645000000
1!
14
#650000000
0!
04
#655000000
1!
1%
b0000000010011 )
b011111 0
b000011 1
b0111111 2
b0000101 3
14
1B
b0000000010011 C
b011111 D
b000011 E
b0111111 F
b0000101 G
b11 N
1O
b0000000010011 Q
b011111 R
b000011 S
b0111111 T
b0000101 U
#660000000
0!
04
#665000000
1!
b0000000010010 )
b000101 0
b111001 1
b1111011 2
b0000010 3
14
b0000000010010 C
b000101 D
b111001 E
b1111011 F
b0000010 G
b10 N
b0000000010010 Q
b000101 R
b111001 S
b1111011 T
b0000010 U
#670000000
0!
04
#675000000
1!
b0000000010001 )
b110110 0
b011111 1
b1111110 2
b0100010 3
14
b0000000010001 C
b110110 D
b011111 E
b1111110 F
b0100010 G
b1 N
b0000000010001 Q
b110110 R
b011111 S
b1111110 T
b0100010 U
#680000000
0!
04
#685000000
1!
b0000000010000 )
b011000 0
b010101 1
b0010100 2
b0010010 3
14
b0000000010000 C
b011000 D
b010101 E
b0010100 F
b0010010 G
b0 N
b0000000010000 Q
b011000 R
b010101 S
b0010100 T
b0010010 U
#690000000
0!
04
#695000000
1!
b0000000001111 )
b110110 0
b010100 1
b1111110 2
b0001111 3
14
b0000000001111 C
b110110 D
b010100 E
b1111110 F
b0001111 G
b0 M
b0000000001111 Q
b110110 R
b010100 S
b1111110 T
b0001111 U
#700000000
0!
04
#705000000
1!
0%
14
0B
b100 N
0O
#710000000
0!
04
#715000000
1!
14
b11 N
#720000000
0!
04
#725000000
1!
14
b10 N
#730000000
0!
04
#735000000
1!
14
b1 N
#740000000
0!
04
#745000000
1!
14
b0 N
#750000000
0!
04
#755000000
1!
14
#760000000
0!
04
#765000000
1!
14
b1 N
#770000000
0!
04
#775000000
1!
14
b10 N
#780000000
0!
04
#785000000
1!
14
b11 N
#790000000
0!
04
#795000000
1!
14
b100 N
#800000000
0!
04
#805000000
1!
14
b101 N
#810000000
0!
04
#815000000
1!
14
b110 N
#820000000
0!
04
#825000000
1!
14
b111 N
#830000000
0!
04
#835000000
1!
14
b1000 N
#840000000
0!
04
#845000000
1!
14
b1001 N
#850000000
0!
04
#855000000
1!
14
b1010 N
#860000000
0!
04
#865000000
1!
14
b1011 N
#870000000
0!
04
#875000000
1!
14
b1100 N
#880000000
0!
04
#885000000
1!
14
b1101 N
#890000000
0!
04
#895000000
1!
14
b1110 N
#900000000
0!
04
#905000000
1!
14
#910000000
0!
04
#915000000
1!
1%
b0000000001110 )
b011111 0
b011111 1
b0111101 2
b0110101 3
14
1B
b0000000001110 C
b011111 D
b011111 E
b0111101 F
b0110101 G
b1101 N
1O
b0000000001110 Q
b011111 R
b011111 S
b0111101 T
b0110101 U
#920000000
0!
04
#925000000
1!
b0000000001101 )
b100111 0
b1011111 2
b0110100 3
14
b0000000001101 C
b100111 D
b1011111 F
b0110100 G
b1100 N
b0000000001101 Q
b100111 R
b1011111 T
b0110100 U
#930000000
0!
04
#935000000
1!
b0000000001100 )
b011001 0
b100000 1
b0100001 2
b1011100 3
14
b0000000001100 C
b011001 D
b100000 E
b0100001 F
b1011100 G
b1011 N
b0000000001100 Q
b011001 R
b100000 S
b0100001 T
b1011100 U
#940000000
0!
04
#945000000
1!
b0000000001011 )
b100000 0
b010101 1
b1011001 2
b0100001 3
14
b0000000001011 C
b100000 D
b010101 E
b1011001 F
b0100001 G
b1010 N
b0000000001011 Q
b100000 R
b010101 S
b1011001 T
b0100001 U
#950000000
0!
04
#955000000
1!
b0000000001010 )
b011111 0
b010110 1
b0101110 2
b0100100 3
14
b0000000001010 C
b011111 D
b010110 E
b0101110 F
b0100100 G
b1001 N
b0000000001010 Q
b011111 R
b010110 S
b0101110 T
b0100100 U
#960000000
0!
04
#965000000
1!
b0000000001001 )
b100000 0
b100000 1
b1001001 2
b1011001 3
14
b0000000001001 C
b100000 D
b100000 E
b1001001 F
b1011001 G
b1000 N
b0000000001001 Q
b100000 R
b100000 S
b1001001 T
b1011001 U
#970000000
0!
04
#975000000
1!
b0000000001000 )
b011111 1
b1000100 2
b0111000 3
14
b0000000001000 C
b011111 E
b1000100 F
b0111000 G
b111 N
b0000000001000 Q
b011111 S
b1000100 T
b0111000 U
#980000000
0!
04
#985000000
1!
b0000000000111 )
b100000 1
b1000111 2
b1000111 3
14
b0000000000111 C
b100000 E
b1000111 F
b1000111 G
b110 N
b0000000000111 Q
b100000 S
b1000111 T
b1000111 U
#990000000
0!
04
#995000000
1!
b0000000000110 )
b011111 0
b0111000 2
b1001000 3
14
b0000000000110 C
b011111 D
b0111000 F
b1001000 G
b101 N
b0000000000110 Q
b011111 R
b0111000 T
b1001000 U
#1000000000
0!
04
#1005000000
1!
b0000000000101 )
b100000 0
b1000000 2
b1000111 3
14
b0000000000101 C
b100000 D
b1000000 F
b1000111 G
b100 N
b0000000000101 Q
b100000 R
b1000000 T
b1000111 U
#1010000000
0!
04
#1015000000
1!
b0000000000100 )
b011111 1
b1001100 2
b0111000 3
14
b0000000000100 C
b011111 E
b1001100 F
b0111000 G
b11 N
b0000000000100 Q
b011111 S
b1001100 T
b0111000 U
#1020000000
0!
04
#1025000000
1!
b0000000000011 )
b1000111 2
14
b0000000000011 C
b1000111 F
b10 N
b0000000000011 Q
b1000111 T
#1030000000
0!
04
#1035000000
1!
b0000000000010 )
b011111 0
b0110100 2
14
b0000000000010 C
b011111 D
b0110100 F
b1 N
b0000000000010 Q
b011111 R
b0110100 T
#1040000000
0!
04
#1045000000
1!
b0000000000001 )
b100000 0
b1001100 2
b0111111 3
14
b0000000000001 C
b100000 D
b1001100 F
b0111111 G
b0 N
b0000000000001 Q
b100000 R
b1001100 T
b0111111 U
#1050000000
0!
04
#1055000000
1!
b0000000000000 )
b1000000 2
b0111011 3
14
b0000000000000 C
b1000000 F
b0111011 G
b0000000000000 Q
b1000000 T
b0111011 U
#1060000000
0!
04
#1065000000
1!
0%
1&
14
0B
1H
0O
1P
